,R-squared_2,Standard_e,MSE,RMSE
Mean,0.009579156951030014,0.09117271837509547,0.00917470490535612,0.0908583287548557
STD,0.13161024225678775,0.03094783937232168,0.0064166233539597675,0.03084112236704959
