DAUID,Index
12090755,0.018337180708368716
12090941,0.018337180708368716
12090939,0.1375288553127654
12090933,0.009168590354184358
12090932,0.027505771062553076
12090929,0.0641801324792905
12090936,0.03667436141673743
12090934,0.18337180708368725
12090850,0.018337180708368716
12090849,0.018337180708368716
12090848,0.018337180708368716
12090847,0.0641801324792905
12090846,0.1191916746043967
12090973,0.027505771062553076
12090972,0.03667436141673743
12090842,0.0641801324792905
12090881,0.07334872283347486
12090880,0.009168590354184358
12090879,0.03667436141673743
12090878,0.027505771062553076
12090877,0.03667436141673743
12090876,0.03667436141673743
12090875,0.009168590354184358
12090874,0.009168590354184358
12090873,0.018337180708368716
12090872,0.027505771062553076
12090871,0.03667436141673743
12090870,0.10085449389602795
12090869,0.03667436141673743
12090868,0.027505771062553076
12090867,0.027505771062553076
12090866,0.018337180708368716
12090863,0.027505771062553076
12090858,0.018337180708368716
12090856,0.11002308425021233
12090855,0.11002308425021233
12090854,0.05501154212510615
12090853,0.32090066239645276
12090852,0.009168590354184358
12090815,0.027505771062553076
12090814,0.027505771062553076
12090937,0.12836026495858105
12090841,0.027505771062553076
12090813,0.027505771062553076
12090812,0.009168590354184358
12090818,0.009168590354184358
12090817,0.0641801324792905
12090774,0.009168590354184358
12090773,0.08251731318765923
12090828,0.027505771062553076
12090771,0.0641801324792905
12090762,0.027505771062553076
12090693,0.009168590354184358
12090835,0.03667436141673743
12090820,0.009168590354184358
12090816,0.045842951770921785
12090783,0.018337180708368716
12090782,0.018337180708368716
12090781,0.009168590354184358
12090780,0.009168590354184358
12090799,0.009168590354184358
12090798,0.018337180708368716
12090796,0.07334872283347486
12090811,0.018337180708368716
12090810,0.009168590354184358
12090808,0.045842951770921785
12090769,0.009168590354184358
12090765,0.018337180708368716
12090761,0.03667436141673743
12090760,0.018337180708368716
12090844,0.0641801324792905
12090843,0.018337180708368716
12090710,0.009168590354184358
12090691,0.018337180708368716
12090690,0.027505771062553076
12090794,0.018337180708368716
12090840,0.009168590354184358
12090839,0.03667436141673743
12090838,0.009168590354184358
12090824,0.027505771062553076
12090667,0.027505771062553076
12090662,0.009168590354184358
12090655,0.05501154212510615
12090642,0.009168590354184358
12090795,0.03667436141673743
12090752,0.009168590354184358
12090851,0.027505771062553076
12090837,0.009168590354184358
12090984,0.009168590354184358
12090983,0.018337180708368716
12090715,0.018337180708368716
12090712,0.045842951770921785
12090748,0.027505771062553076
12090747,0.045842951770921785
12090724,0.018337180708368716
12090723,0.045842951770921785
12090711,0.018337180708368716
12090684,0.0641801324792905
12090678,0.027505771062553076
12090674,0.05501154212510615
12090673,0.009168590354184358
12090994,0.03667436141673743
12090993,0.09168590354184358
12090986,0.009168590354184358
12090657,0.045842951770921785
12090608,0.027505771062553076
12090600,0.009168590354184358
12090599,0.009168590354184358
12090598,0.05501154212510615
12090597,0.03667436141673743
12090596,0.009168590354184358
12090595,0.03667436141673743
12090594,0.018337180708368716
12090593,0.027505771062553076
12090592,0.009168590354184358
12090591,0.009168590354184358
12090751,0.018337180708368716
12090991,0.05501154212510615
12090687,0.018337180708368716
12090671,0.009168590354184358
12090668,0.03667436141673743
12090902,0.027505771062553076
12090989,0.009168590354184358
12090897,0.2475519395629778
12090924,0.027505771062553076
12090922,0.009168590354184358
12090921,0.009168590354184358
12090998,0.045842951770921785
12090997,0.018337180708368716
12090919,0.018337180708368716
12090916,0.018337180708368716
12090915,0.027505771062553076
12090911,0.009168590354184358
12090896,0.07334872283347486
12090895,0.009168590354184358
12090886,0.045842951770921785
12090982,0.027505771062553076
12090717,0.009168590354184358
12090917,0.009168590354184358
12090945,0.009168590354184358
12090944,0.027505771062553076
12090965,0.05501154212510615
12090963,0.027505771062553076
12090962,0.03667436141673743
12090904,0.018337180708368716
12090970,0.027505771062553076
12090969,0.018337180708368716
12090967,0.027505771062553076
12090957,0.018337180708368716
12090954,0.027505771062553076
12090952,0.018337180708368716
12090901,0.018337180708368716
12090900,0.03667436141673743
12090899,0.027505771062553076
12090898,0.11002308425021233
12090772,0.03667436141673743
12090894,0.018337180708368716
12090893,0.009168590354184358
12090883,0.0641801324792905
12090882,0.03667436141673743
12090910,0.009168590354184358
12090905,0.018337180708368716
12090892,0.009168590354184358
12090891,0.1375288553127654
12090890,0.045842951770921785
12090764,0.0641801324792905
12090951,0.009168590354184358
12090903,0.009168590354184358
12090779,0.018337180708368716
12090778,0.027505771062553076
12090776,0.009168590354184358
12090775,0.08251731318765923
12090336,0.009168590354184358
12090335,0.009168590354184358
12090334,0.009168590354184358
12090333,0.018337180708368716
12090332,0.027505771062553076
12090330,0.045842951770921785
12090707,0.05501154212510615
12090960,0.05501154212510615
12090567,0.027505771062553076
12090565,0.03667436141673743
12090564,0.018337180708368716
12090563,0.0641801324792905
12090659,0.018337180708368716
12090703,0.05501154212510615
12090702,0.05501154212510615
12090701,0.0641801324792905
12090700,0.05501154212510615
12090609,0.009168590354184358
12090534,0.05501154212510615
12090533,0.018337180708368716
12090231,0.018337180708368716
12090230,0.009168590354184358
12090229,0.009168590354184358
12090228,0.027505771062553076
12090227,0.009168590354184358
12090786,0.027505771062553076
12090785,0.009168590354184358
12090784,0.009168590354184358
12090510,0.03667436141673743
12090636,0.027505771062553076
12090698,0.018337180708368716
12090661,0.03667436141673743
12090220,0.045842951770921785
12090188,0.05501154212510615
12090187,0.045842951770921785
12090185,0.09168590354184358
12090215,0.0641801324792905
12090214,0.23838334920879345
12090213,0.08251731318765923
12090212,0.027505771062553076
12090211,0.03667436141673743
12090210,0.07334872283347486
12090209,0.0641801324792905
12090506,0.009168590354184358
12090502,0.05501154212510615
12090501,0.1191916746043967
12090500,0.045842951770921785
12090498,0.03667436141673743
12090406,0.0641801324792905
12090373,0.0641801324792905
12090372,0.11002308425021233
12090699,0.009168590354184358
12090184,0.009168590354184358
12090206,0.045842951770921785
12090205,0.07334872283347486
12090204,0.027505771062553076
12090203,0.05501154212510615
12090202,0.33923784310482147
12090177,0.009168590354184358
12090176,0.018337180708368716
12090175,0.03667436141673743
12090172,0.05501154212510615
12090171,0.018337180708368716
12090371,0.018337180708368716
12090370,0.11002308425021233
12090369,0.05501154212510615
12090928,0.009168590354184358
12090226,0.027505771062553076
12090225,0.027505771062553076
12090583,0.027505771062553076
12090224,0.009168590354184358
12090223,0.05501154212510615
12090927,0.018337180708368716
12090926,0.009168590354184358
12090925,0.07334872283347486
12090351,0.14669744566694978
12090149,0.009168590354184358
12090146,0.027505771062553076
12090145,0.009168590354184358
12090144,0.009168590354184358
12090169,0.009168590354184358
12090168,0.045842951770921785
12090167,0.045842951770921785
12090140,0.21477685721978387
12090139,0.045842951770921785
12090138,0.018337180708368716
12090137,0.027505771062553076
12090135,0.14669744566694978
12090134,0.009168590354184358
12090248,0.018337180708368716
12090247,0.03667436141673743
12090246,0.009168590354184358
12090244,0.18337180708368725
12090232,0.21477685721978387
12090420,0.009168590354184358
12090415,0.009168590354184358
12090143,0.08251731318765923
12090142,0.018337180708368716
12090602,0.018337180708368716
12090270,0.03667436141673743
12090267,0.14669744566694978
12090265,0.2475519395629778
12090133,0.03667436141673743
12090132,0.009168590354184358
12090131,0.009168590354184358
12090582,0.009168590354184358
12090474,0.018337180708368716
12090164,0.16893390544886205
12090163,0.03667436141673743
12090574,0.03667436141673743
12090573,0.045842951770921785
12090217,0.0641801324792905
12090216,0.3300692527506371
12090160,0.027505771062553076
12090159,0.027505771062553076
12090158,0.009168590354184358
12090154,0.009168590354184358
12090497,0.03667436141673743
12090496,0.027505771062553076
12090495,0.07334872283347486
12090494,0.07334872283347486
12090493,0.018337180708368716
12090492,0.09168590354184358
12090192,0.027505771062553076
12090191,0.009168590354184358
12090579,0.027505771062553076
12090578,0.009168590354184358
12090577,0.1191916746043967
12090576,0.05501154212510615
12090153,0.05501154212510615
12090572,0.08251731318765923
12090507,0.027505771062553076
12090200,0.009168590354184358
12090199,0.009168590354184358
12090198,0.05501154212510615
12090197,0.009168590354184358
12090196,0.018337180708368716
12090195,0.05501154212510615
12090166,0.027505771062553076
12090291,0.03667436141673743
12090282,0.10085449389602795
12090280,0.018337180708368716
12090581,0.018337180708368716
12090580,0.018337180708368716
12090262,0.009168590354184358
12090261,0.018337180708368716
12090201,0.0641801324792905
12090368,0.09168590354184358
12090279,0.009168590354184358
12090272,0.20170898779205598
12090407,0.05501154212510615
12090165,0.045842951770921785
12090746,0.018337180708368716
12090745,0.018337180708368716
12090743,0.03667436141673743
12090741,0.027505771062553076
12090740,0.027505771062553076
12090738,0.09168590354184358
12090737,0.027505771062553076
12091003,0.018337180708368716
12090793,0.045842951770921785
12090791,0.009168590354184358
12090790,0.027505771062553076
12090789,0.009168590354184358
12090788,0.009168590354184358
12090264,0.1191916746043967
12090263,0.018337180708368716
12090117,0.009168590354184358
12090116,0.07334872283347486
12090115,0.03667436141673743
12090736,0.009168590354184358
12090735,0.018337180708368716
12090734,0.0641801324792905
12090190,0.009168590354184358
12090189,0.07334872283347486
12090254,0.03667436141673743
12090253,0.05501154212510615
12090252,0.027505771062553076
12090260,0.009168590354184358
12090259,0.03667436141673743
12090162,0.08251731318765923
12090161,0.1742032167295029
12090141,0.19254039743787163
12090643,0.009168590354184358
12090536,0.03667436141673743
12090194,0.027505771062553076
12090193,0.41648584501183994
12090651,0.009168590354184358
12090649,0.045842951770921785
12090120,0.009168590354184358
12090625,0.10085449389602795
12090624,0.018337180708368716
12090623,0.05501154212510615
12090622,0.009168590354184358
12090621,0.045842951770921785
12090620,0.027505771062553076
12090619,0.03667436141673743
12090695,0.009168590354184358
12090697,0.018337180708368716
12090683,0.009168590354184358
12090682,0.009168590354184358
12090250,0.045842951770921785
12090640,0.018337180708368716
12090271,0.07334872283347486
12090122,0.009168590354184358
12090562,0.14669744566694978
12090542,0.018337180708368716
12090541,0.018337180708368716
12090539,0.009168590354184358
12090537,0.018337180708368716
12090739,0.045842951770921785
12090694,0.009168590354184358
12090658,0.018337180708368716
12090653,0.018337180708368716
12090488,0.009168590354184358
12090487,0.009168590354184358
12090486,0.03667436141673743
12090485,0.03667436141673743
12090482,0.03667436141673743
12090532,0.18337180708368725
12090531,0.018337180708368716
12090530,0.05501154212510615
12090528,0.009168590354184358
12090523,0.027505771062553076
12090521,0.027505771062553076
12090660,0.009168590354184358
12090635,0.14669744566694978
12090634,0.15586603602113416
12090631,0.018337180708368716
12090630,0.07334872283347486
12090629,0.009168590354184358
12090628,0.07334872283347486
12090627,0.018337180708368716
12090535,0.03667436141673743
12090114,0.009168590354184358
12090105,0.009168590354184358
12090633,0.11002308425021233
12090632,0.027505771062553076
12091001,0.009168590354184358
12091000,0.009168590354184358
12090638,0.027505771062553076
12090367,0.05501154212510615
12090366,0.1191916746043967
12090362,0.375912204521559
12090520,0.045842951770921785
12090481,0.018337180708368716
12090479,0.018337180708368716
12090478,0.009168590354184358
12090490,0.009168590354184358
12090489,0.10085449389602795
12090357,0.9810391678977244
12090356,0.0641801324792905
12090355,0.027505771062553076
12090617,0.045842951770921785
12090610,0.018337180708368716
12090476,0.009168590354184358
12090475,0.018337180708368716
12090350,0.0641801324792905
12090349,0.05501154212510615
12090348,0.027505771062553076
12090347,0.1375288553127654
12090346,0.10085449389602795
12090345,0.009168590354184358
12090344,0.10085449389602795
12090343,0.18337180708368725
12090342,0.045842951770921785
12090341,0.018337180708368716
12090340,0.0641801324792905
12090119,0.018337180708368716
12090118,0.009168590354184358
12090721,0.045842951770921785
12090719,0.009168590354184358
12090337,0.0641801324792905
12090999,0.1375288553127654
12090570,0.1742032167295029
12090569,0.14669744566694978
12090328,0.018337180708368716
12090327,0.045842951770921785
12090326,0.03667436141673743
12090324,0.009168590354184358
12090313,0.027505771062553076
12090312,0.045842951770921785
12090311,0.009168590354184358
12090298,0.03667436141673743
12090297,0.027505771062553076
12090296,0.018337180708368716
12090294,0.018337180708368716
12090637,0.018337180708368716
12090293,0.009168590354184358
12090292,0.018337180708368716
12090130,0.027505771062553076
12090128,0.009168590354184358
12090359,0.1742032167295029
12090358,0.10085449389602795
12090728,0.009168590354184358
12090725,0.009168590354184358
12090616,0.009168590354184358
12090615,0.07334872283347486
12090614,0.027505771062553076
12090612,0.018337180708368716
12090295,0.11002308425021233
12090123,0.0641801324792905
12090730,0.027505771062553076
